session04 - homework - solutions
…
Let’s load in the data and have a look:

incomplete <- read_csv("../../data/incomplete_perception.csv") |> 
  # preprocessing the data such that everything that ought to be a factor is one
  mutate(listener = as.factor(listener),
         voice = as.factor(voice), 
         item_pair = as.factor(item_pair),
         correct_voicing = as.factor(correct_voicing),
         chosen_voicing = as.factor(chosen_voicing)
         )

# have a look
incomplete

# A tibble: 6,144 × 9
   order listener   age item_pair voice    RT   ACC correct_voicing
   <dbl> <fct>    <dbl> <fct>     <fct> <dbl> <dbl> <fct>          
 1     9 1           24 19        VP11   1531     1 voiceless      
 2    10 1           24 11        VP10   1009     1 voiceless      
 3    11 1           24 14        VP07    633     1 voiced         
 4    12 1           24 23        VP15   1852     1 voiced         
 5    13 1           24 7         VP06   3606     0 voiceless      
 6    14 1           24 15        VP09   4493     1 voiceless      
 7    15 1           24 3         VP08  15186     0 voiceless      
 8    16 1           24 13        VP16   1995     0 voiced         
 9    17 1           24 24        VP06    940     0 voiceless      
10    18 1           24 2         VP12   4907     0 voiceless      
# ℹ 6,134 more rows
# ℹ 1 more variable: chosen_voicing <fct>
…
